Creating beautiful tables in R with {gt} - 5 Case studies
…
# Find their best book and the info for the sparlines
top5_authors_and_book_by_decade <- top5_authors_by_decade |> 
  mutate(
    best_book = map2_chr(decade, author, find_best_book),
    sparkline_weeks = map2(decade, author, find_number_of_weeks_per_year)
  )
top5_authors_and_book_by_decade
## # A tibble: 30 × 5
##    author            decade weeks best_book            sparkline_weeks
##    <chr>              <dbl> <int> <chr>                <list>         
##  1 Allen Drury         1960   176 Advise And Consent   <int [10]>     
##  2 John O'Hara         1960   158 Elizabeth Appleton   <int [10]>     
##  3 Taylor Caldwell     1960   157 Testimony Of Two Men <int [10]>     
##  4 Irving Wallace      1960   136 The Man              <int [10]>     
##  5 Leon Uris           1960   135 Topaz                <int [10]>     
##  6 Richard Bach        1970   172 Illusions            <int [10]>     
##  7 Robert Ludlum       1970   125 The Matarese Circle  <int [10]>     
##  8 Herman Wouk         1970   123 The Winds Of War     <int [10]>     
##  9 Agatha Christie     1970   119 Curtain              <int [10]>     
## 10 Frederick Forsyth   1970   119 The Odessa File      <int [10]>     
## # … with 20 more rows
…
