Creating beautiful tables in R with {gt} - 2 Fancy stuff / Eye catchers
…
2  Fancy stuff / Eye catchers

In this chapter, we’re going to learn how to add fancy elements like plots, icon and images to {gt} tables. We’re going to start this chapter by using a selection of the gapminder data set from {gapminder}.

library(tidyverse)
library(gt)
gapminder_data <- gapminder::gapminder |> 
  janitor::clean_names() |> 
  select(continent, country, year, life_exp) |> 
  mutate(year = as.character(year)) # Year is really categorical with numeric labels
gapminder_data
## # A tibble: 1,704 × 4
##    continent country     year  life_exp
##    <fct>     <fct>       <chr>    <dbl>
##  1 Asia      Afghanistan 1952      28.8
##  2 Asia      Afghanistan 1957      30.3
##  3 Asia      Afghanistan 1962      32.0
##  4 Asia      Afghanistan 1967      34.0
##  5 Asia      Afghanistan 1972      36.1
##  6 Asia      Afghanistan 1977      38.4
##  7 Asia      Afghanistan 1982      39.9
##  8 Asia      Afghanistan 1987      40.8
##  9 Asia      Afghanistan 1992      41.7
## 10 Asia      Afghanistan 1997      41.8
## # … with 1,694 more rows
…
Take the original data set gapminder_data and filter it such that it contains the same years and countries as our data set selected_countries

Group the filtered data set by country and run summarise(Timeline = list(c(life_exp))).

The trick here is to wrap the combine function c() into list(). This way, the new list will become one object that will be saved into a tibble’s cell.

Filter
Summary

gapminder_data |> 
  filter(
    str_ends(year, "7"),
    country %in% selected_countries$country
  )
## # A tibble: 60 × 4
##    continent country   year  life_exp
##    <fct>     <fct>     <chr>    <dbl>
##  1 Oceania   Australia 1957      70.3
##  2 Oceania   Australia 1967      71.1
##  3 Oceania   Australia 1977      73.5
##  4 Oceania   Australia 1987      76.3
##  5 Oceania   Australia 1997      78.8
##  6 Oceania   Australia 2007      81.2
##  7 Africa    Egypt     1957      44.4
##  8 Africa    Egypt     1967      49.3
##  9 Africa    Egypt     1977      53.3
## 10 Africa    Egypt     1987      59.8
## # … with 50 more rows
…
